{
  "__type__": "cc.AnimationClip",
  "_name": "coin",
  "_objFlags": 0,
  "_native": "",
  "_duration": 0.08333333333333333,
  "sample": 60,
  "speed": 1,
  "wrapMode": 1,
  "curveData": {
    "comps": {
      "cc.Sprite": {
        "spriteFrame": [
          {
            "frame": 0,
            "value": {
              "__uuid__": "797c0af5-e8fb-43e5-836d-5cc959d01704"
            }
          },
          {
            "frame": 0.016666666666666666,
            "value": {
              "__uuid__": "d2b7d152-c7a7-4f58-8234-657241804f6f"
            }
          },
          {
            "frame": 0.03333333333333333,
            "value": {
              "__uuid__": "797c0af5-e8fb-43e5-836d-5cc959d01704"
            }
          },
          {
            "frame": 0.05,
            "value": {
              "__uuid__": "d2b7d152-c7a7-4f58-8234-657241804f6f"
            }
          }
        ]
      }
    },
    "props": {
      "opacity": [
        {
          "frame": 0,
          "value": 255
        },
        {
          "frame": 0.08333333333333333,
          "value": 150
        }
      ]
    }
  },
  "events": []
}