{
  "__type__": "cc.AnimationClip",
  "_name": "die",
  "_objFlags": 0,
  "_native": "",
  "_duration": 0.06666666666666667,
  "sample": 60,
  "speed": 1,
  "wrapMode": 1,
  "curveData": {
    "paths": {
      "Character copy": {
        "comps": {
          "cc.Sprite": {
            "spriteFrame": [
              {
                "frame": 0,
                "value": {
                  "__uuid__": "4b483027-7b8f-413c-a594-2c5d0978f40c"
                }
              },
              {
                "frame": 0.03333333333333333,
                "value": {
                  "__uuid__": "8f7f7c32-78b3-4b92-ad27-d47ef1133a61"
                }
              }
            ]
          }
        },
        "props": {
          "eulerAngles": [
            {
              "frame": 0,
              "value": {
                "__type__": "cc.Vec3",
                "x": 0,
                "y": 0,
                "z": 0
              }
            },
            {
              "frame": 0.03333333333333333,
              "value": {
                "__type__": "cc.Vec3",
                "x": 0,
                "y": 0,
                "z": 0.1
              }
            },
            {
              "frame": 0.06666666666666667,
              "value": {
                "__type__": "cc.Vec3",
                "x": 0,
                "y": 0,
                "z": 50
              }
            }
          ],
          "position": [
            {
              "frame": 0,
              "value": [
                0,
                -1.29,
                0
              ]
            },
            {
              "frame": 0.03333333333333333,
              "value": [
                0,
                -1.28,
                0
              ]
            },
            {
              "frame": 0.06666666666666667,
              "value": [
                -5.28,
                -30.319,
                0
              ]
            }
          ]
        }
      }
    }
  },
  "events": []
}