{
  "__type__": "cc.AnimationClip",
  "_name": "enemy3die",
  "_objFlags": 0,
  "_native": "",
  "_duration": 2,
  "sample": 60,
  "speed": 1,
  "wrapMode": 1,
  "curveData": {
    "props": {
      "angle": [
        {
          "frame": 0,
          "value": 0
        },
        {
          "frame": 2,
          "value": -87.548
        }
      ],
      "scale": [
        {
          "frame": 0,
          "value": {
            "__type__": "cc.Vec2",
            "x": 1.386,
            "y": 1.386
          }
        },
        {
          "frame": 2,
          "value": {
            "__type__": "cc.Vec2",
            "x": 0.013,
            "y": 1.386
          }
        }
      ]
    }
  },
  "events": []
}