{
  "__type__": "cc.AnimationClip",
  "_name": "enemy2attack",
  "_objFlags": 0,
  "_native": "",
  "_duration": 6.033333333333333,
  "sample": 60,
  "speed": 1,
  "wrapMode": 2,
  "curveData": {
    "comps": {
      "cc.Sprite": {
        "spriteFrame": [
          {
            "frame": 0.016666666666666666,
            "value": {
              "__uuid__": "893275f1-8826-46fe-87af-8f5ca943f608"
            }
          },
          {
            "frame": 0.5,
            "value": {
              "__uuid__": "630cc5b2-c910-48c5-b790-e431c2b6dfef"
            }
          },
          {
            "frame": 1.5,
            "value": {
              "__uuid__": "411649d5-f708-490c-8679-ac83703e7389"
            }
          },
          {
            "frame": 2,
            "value": {
              "__uuid__": "5491bc8f-2e60-45a5-8e3c-6cc93c5b9d13"
            }
          },
          {
            "frame": 2.7,
            "value": {
              "__uuid__": "893275f1-8826-46fe-87af-8f5ca943f608"
            }
          },
          {
            "frame": 3.3333333333333335,
            "value": {
              "__uuid__": "630cc5b2-c910-48c5-b790-e431c2b6dfef"
            }
          },
          {
            "frame": 4.05,
            "value": {
              "__uuid__": "411649d5-f708-490c-8679-ac83703e7389"
            }
          },
          {
            "frame": 4.8,
            "value": {
              "__uuid__": "5491bc8f-2e60-45a5-8e3c-6cc93c5b9d13"
            }
          },
          {
            "frame": 6,
            "value": {
              "__uuid__": "893275f1-8826-46fe-87af-8f5ca943f608"
            }
          }
        ]
      }
    },
    "props": {
      "position": [
        {
          "frame": 0.016666666666666666,
          "value": [
            15333.757,
            502.21,
            0
          ]
        },
        {
          "frame": 1,
          "value": [
            14636.619,
            502.21,
            0
          ]
        },
        {
          "frame": 2,
          "value": [
            15333.757,
            502.21,
            0
          ]
        },
        {
          "frame": 3,
          "value": [
            14695.82,
            1030.65,
            0
          ]
        },
        {
          "frame": 4,
          "value": [
            15259.966,
            1030.65,
            0
          ]
        },
        {
          "frame": 5,
          "value": [
            14636.311,
            514.111,
            0
          ]
        },
        {
          "frame": 6.033333333333333,
          "value": [
            15331.377,
            514.111,
            0
          ]
        }
      ]
    }
  },
  "events": []
}