{
  "__type__": "cc.AnimationClip",
  "_name": "enemy1attack",
  "_objFlags": 0,
  "_native": "",
  "_duration": 9.933333333333334,
  "sample": 60,
  "speed": 1,
  "wrapMode": 2,
  "curveData": {
    "comps": {
      "cc.Sprite": {
        "spriteFrame": [
          {
            "frame": 0,
            "value": {
              "__uuid__": "90147750-51c7-4895-9970-a66372f74db0"
            }
          },
          {
            "frame": 0.6,
            "value": {
              "__uuid__": "32c0cb0b-6ffb-442b-8226-4b2635342da4"
            }
          },
          {
            "frame": 1.25,
            "value": {
              "__uuid__": "163ebff9-29ce-4f0c-9f4b-b568b5a70801"
            }
          },
          {
            "frame": 1.8166666666666667,
            "value": {
              "__uuid__": "edf2165c-b2da-4171-8b3e-f24c21af297f"
            }
          },
          {
            "frame": 2.533333333333333,
            "value": {
              "__uuid__": "90147750-51c7-4895-9970-a66372f74db0"
            }
          },
          {
            "frame": 3.1166666666666667,
            "value": {
              "__uuid__": "32c0cb0b-6ffb-442b-8226-4b2635342da4"
            }
          },
          {
            "frame": 3.7666666666666666,
            "value": {
              "__uuid__": "163ebff9-29ce-4f0c-9f4b-b568b5a70801"
            }
          },
          {
            "frame": 4.333333333333333,
            "value": {
              "__uuid__": "edf2165c-b2da-4171-8b3e-f24c21af297f"
            }
          },
          {
            "frame": 5.016666666666667,
            "value": {
              "__uuid__": "90147750-51c7-4895-9970-a66372f74db0"
            }
          },
          {
            "frame": 5.266666666666667,
            "value": {
              "__uuid__": "b88b6405-1eab-4820-9980-15ab817dd2e1"
            }
          },
          {
            "frame": 5.616666666666666,
            "value": {
              "__uuid__": "90147750-51c7-4895-9970-a66372f74db0"
            }
          },
          {
            "frame": 6.716666666666667,
            "value": {
              "__uuid__": "b88b6405-1eab-4820-9980-15ab817dd2e1"
            }
          },
          {
            "frame": 7.25,
            "value": {
              "__uuid__": "90147750-51c7-4895-9970-a66372f74db0"
            }
          },
          {
            "frame": 7.9,
            "value": {
              "__uuid__": "b88b6405-1eab-4820-9980-15ab817dd2e1"
            }
          },
          {
            "frame": 8.25,
            "value": {
              "__uuid__": "90147750-51c7-4895-9970-a66372f74db0"
            }
          },
          {
            "frame": 8.633333333333333,
            "value": {
              "__uuid__": "32c0cb0b-6ffb-442b-8226-4b2635342da4"
            }
          },
          {
            "frame": 9.016666666666667,
            "value": {
              "__uuid__": "163ebff9-29ce-4f0c-9f4b-b568b5a70801"
            }
          },
          {
            "frame": 9.45,
            "value": {
              "__uuid__": "edf2165c-b2da-4171-8b3e-f24c21af297f"
            }
          },
          {
            "frame": 9.883333333333333,
            "value": {
              "__uuid__": "90147750-51c7-4895-9970-a66372f74db0"
            }
          }
        ]
      }
    },
    "props": {
      "position": [
        {
          "frame": 0,
          "value": [
            13737.747,
            45.316,
            0
          ]
        },
        {
          "frame": 1.4,
          "value": [
            13346.706,
            0.574,
            0
          ]
        },
        {
          "frame": 2.533333333333333,
          "value": [
            13030.149,
            45.316,
            0
          ]
        },
        {
          "frame": 3.8666666666666667,
          "value": [
            13410.067,
            -1.371,
            0
          ]
        },
        {
          "frame": 5.016666666666667,
          "value": [
            13737.747,
            45.316,
            0
          ]
        },
        {
          "frame": 5.533333333333333,
          "value": [
            13756.126,
            -0.632,
            0
          ]
        },
        {
          "frame": 6.05,
          "value": [
            13558.55,
            307.219,
            0
          ]
        },
        {
          "frame": 6.266666666666667,
          "value": [
            13544.766,
            307.219,
            0
          ]
        },
        {
          "frame": 6.716666666666667,
          "value": [
            13404.625,
            36.126,
            0
          ]
        },
        {
          "frame": 6.933333333333334,
          "value": [
            13386.246,
            -16.714,
            0
          ]
        },
        {
          "frame": 7.033333333333333,
          "value": [
            13372.462,
            -16.714,
            0
          ]
        },
        {
          "frame": 7.433333333333334,
          "value": [
            13223.131,
            270.46,
            0
          ]
        },
        {
          "frame": 7.566666666666666,
          "value": [
            13213.941,
            270.46,
            0
          ]
        },
        {
          "frame": 8.133333333333333,
          "value": [
            13011.77,
            -7.525,
            0
          ]
        },
        {
          "frame": 8.266666666666667,
          "value": [
            13064.233,
            31.826,
            0
          ]
        },
        {
          "frame": 9.75,
          "value": [
            13647.884,
            -2.134,
            0
          ]
        },
        {
          "frame": 9.9,
          "value": [
            13730.855,
            45.316,
            0
          ]
        },
        {
          "frame": 9.933333333333334,
          "value": [
            13730.855,
            45.316,
            0
          ]
        }
      ]
    }
  },
  "events": []
}