{
  "__type__": "cc.AnimationClip",
  "_name": "enemy2die",
  "_objFlags": 0,
  "_native": "",
  "_duration": 2,
  "sample": 60,
  "speed": 1,
  "wrapMode": 1,
  "curveData": {
    "props": {
      "scale": [
        {
          "frame": 0,
          "value": {
            "__type__": "cc.Vec2",
            "x": 1.386,
            "y": 1.386
          }
        },
        {
          "frame": 2,
          "value": {
            "__type__": "cc.Vec2",
            "x": 1.386,
            "y": 0
          }
        }
      ]
    }
  },
  "events": []
}