{
  "__type__": "cc.AnimationClip",
  "_name": "enemy3hurt",
  "_objFlags": 0,
  "_native": "",
  "_duration": 0.6666666666666666,
  "sample": 60,
  "speed": 1,
  "wrapMode": 1,
  "curveData": {
    "props": {
      "scale": [
        {
          "frame": 0,
          "value": {
            "__type__": "cc.Vec2",
            "x": 1.342,
            "y": 1.342
          }
        },
        {
          "frame": 0.16666666666666666,
          "value": {
            "__type__": "cc.Vec2",
            "x": 0.904,
            "y": 0.904
          }
        },
        {
          "frame": 0.3333333333333333,
          "value": {
            "__type__": "cc.Vec2",
            "x": 1.342,
            "y": 1.342
          }
        },
        {
          "frame": 0.5,
          "value": {
            "__type__": "cc.Vec2",
            "x": 0.904,
            "y": 0.904
          }
        },
        {
          "frame": 0.6666666666666666,
          "value": {
            "__type__": "cc.Vec2",
            "x": 1.342,
            "y": 1.342
          }
        }
      ]
    }
  },
  "events": []
}