{
  "__type__": "cc.AnimationClip",
  "_name": "idle",
  "_objFlags": 0,
  "_native": "",
  "_duration": 0.5166666666666667,
  "sample": 60,
  "speed": 1,
  "wrapMode": 2,
  "curveData": {
    "paths": {
      "Character copy": {
        "comps": {
          "cc.Sprite": {
            "spriteFrame": [
              {
                "frame": 0,
                "value": {
                  "__uuid__": "4b483027-7b8f-413c-a594-2c5d0978f40c"
                }
              },
              {
                "frame": 0.15,
                "value": {
                  "__uuid__": "7f6b8409-8236-4284-9b6f-71d8819659c6"
                }
              },
              {
                "frame": 0.3333333333333333,
                "value": {
                  "__uuid__": "4b483027-7b8f-413c-a594-2c5d0978f40c"
                }
              },
              {
                "frame": 0.5,
                "value": {
                  "__uuid__": "7f6b8409-8236-4284-9b6f-71d8819659c6"
                }
              }
            ]
          }
        },
        "props": {
          "position": [
            {
              "frame": 0,
              "value": [
                0,
                -1.29,
                0
              ]
            },
            {
              "frame": 0.13333333333333333,
              "value": [
                0,
                -1.236,
                0
              ]
            },
            {
              "frame": 0.15,
              "value": [
                0,
                -2.004,
                0
              ]
            },
            {
              "frame": 0.31666666666666665,
              "value": [
                0,
                -0.106,
                0
              ]
            },
            {
              "frame": 0.3333333333333333,
              "value": [
                0,
                -1.936,
                0
              ]
            },
            {
              "frame": 0.5,
              "value": [
                0,
                -2.004,
                0
              ]
            }
          ]
        }
      }
    }
  },
  "events": []
}