{
  "__type__": "cc.AnimationClip",
  "_name": "jump",
  "_objFlags": 0,
  "_native": "",
  "_duration": 0.21666666666666667,
  "sample": 60,
  "speed": 1,
  "wrapMode": 1,
  "curveData": {
    "paths": {
      "Character copy": {
        "comps": {
          "cc.Sprite": {
            "spriteFrame": [
              {
                "frame": 0,
                "value": {
                  "__uuid__": "b48c4528-1c0c-4120-8e34-eb790d408c23"
                }
              },
              {
                "frame": 0.05,
                "value": {
                  "__uuid__": "6f3f7d6f-2fac-4ef1-a31f-699abc4e01c9"
                }
              },
              {
                "frame": 0.1,
                "value": {
                  "__uuid__": "c819d4b1-d899-44a0-9c30-03bb46f1a391"
                }
              },
              {
                "frame": 0.15,
                "value": {
                  "__uuid__": "654611f0-deae-43a1-8086-495bde38b725"
                }
              },
              {
                "frame": 0.2,
                "value": {
                  "__uuid__": "944eed96-de29-4449-9d77-d3ca6812cb48"
                }
              }
            ]
          }
        },
        "props": {
          "position": [
            {
              "frame": 0,
              "value": [
                0,
                -1.29,
                0
              ]
            },
            {
              "frame": 0.1,
              "value": [
                0,
                3.226,
                0
              ]
            },
            {
              "frame": 0.2,
              "value": [
                0,
                -0.645,
                0
              ]
            }
          ]
        }
      }
    }
  },
  "events": []
}